// Jest Snapshot v1, https://goo.gl/fbAQLP

exports[`paste-rich-text.ts: Paste rich text into panel 1`] = `
Object {
  "content": Array [
    Object {
      "attrs": Object {
        "panelColor": null,
        "panelIcon": null,
        "panelType": "info",
      },
      "content": Array [
        Object {
          "content": Array [
            Object {
              "text": "this is a link ",
              "type": "text",
            },
            Object {
              "marks": Array [
                Object {
                  "attrs": Object {
                    "__confluenceMetadata": null,
                    "href": "http://www.google.com",
                  },
                  "type": "link",
                },
              ],
              "text": "www.google.com",
              "type": "text",
            },
          ],
          "type": "paragraph",
        },
        Object {
          "content": Array [
            Object {
              "text": "more elements with some ",
              "type": "text",
            },
            Object {
              "marks": Array [
                Object {
                  "type": "strong",
                },
              ],
              "text": "format",
              "type": "text",
            },
          ],
          "type": "paragraph",
        },
        Object {
          "content": Array [
            Object {
              "text": "some addition",
              "type": "text",
            },
            Object {
              "marks": Array [
                Object {
                  "type": "em",
                },
              ],
              "text": " formatting",
              "type": "text",
            },
          ],
          "type": "paragraph",
        },
      ],
      "type": "panel",
    },
  ],
  "type": "doc",
}
`;
