{
  "version": 1,
  "type": "doc",
  "content": [
    {
      "type": "paragraph",
      "content": []
    },
    {
      "type": "expand",
      "attrs": {
        "title": ""
      },
      "content": [
        {
          "type": "table",
          "attrs": {
            "isNumberColumnEnabled": false,
            "layout": "default",
            "localId": "abc-123"
          },
          "content": [
            {
              "type": "tableRow",
              "content": [
                {
                  "type": "tableCell",
                  "attrs": {},
                  "content": [
                    {
                      "type": "nestedExpand",
                      "attrs": {
                        "title": ""
                      },
                      "content": [
                        {
                          "type": "mediaSingle",
                          "attrs": {
                            "layout": "center"
                          },
                          "content": [
                            {
                              "type": "media",
                              "attrs": {
                                "id": "a559980d-cd47-43e2-8377-27359fcb905f",
                                "type": "file",
                                "collection": "MediaServicesSample",
                                "width": 500,
                                "height": 500
                              }
                            }
                          ],
                          "marks": [
                            {
                              "type": "link",
                              "attrs": {
                                "href": "https://gnu.org"
                              }
                            }
                          ]
                        }
                      ]
                    }
                  ]
                }
              ]
            }
          ]
        }
      ]
    }
  ]
}
